(export (version D)
  (design
    (source "/home/victor/Téléchargements/PCB températures/eda/temperature_monitoring.sch")
    (date "mer. 10 avril 2019 16:20:14 CEST")
    (tool "Eeschema 5.0.2-bee76a0~70~ubuntu18.04.1")
    (sheet (number 1) (name /) (tstamps /)
      (title_block
        (title "Temperature monitoring")
        (company "Institut Maupertuis")
        (rev 1)
        (date 2019-03-13)
        (source temperature_monitoring.sch)
        (comment (number 1) (value "Victor Lamoine"))
        (comment (number 2) (value ""))
        (comment (number 3) (value ""))
        (comment (number 4) (value "")))))
  (components
    (comp (ref U7)
      (value PC817)
      (footprint Package_DIP:DIP-4_W7.62mm)
      (datasheet http://www.soselectronic.cz/a_info/resource/d/pc817.pdf)
      (libsource (lib Isolator) (part PC817) (description "DC Optocoupler, Vce 35V, CTR 50-300%, DIP4"))
      (sheetpath (names /) (tstamps /))
      (tstamp 5C87BD08))
    (comp (ref R1)
      (value 1000)
      (footprint Resistor_THT:R_Axial_DIN0207_L6.3mm_D2.5mm_P10.16mm_Horizontal)
      (datasheet ~)
      (libsource (lib Device) (part R) (description Resistor))
      (sheetpath (names /) (tstamps /))
      (tstamp 5C87BD84))
    (comp (ref U1)
      (value MAX31855KASA)
      (footprint Package_SO:SOIC-8_3.9x4.9mm_P1.27mm)
      (datasheet http://datasheets.maximintegrated.com/en/ds/MAX31855.pdf)
      (libsource (lib Sensor_Temperature) (part MAX31855KASA) (description "Cold Junction K-type Termocouple Interface, SPI, SO8"))
      (sheetpath (names /) (tstamps /))
      (tstamp 5C87C3EA))
    (comp (ref U8)
      (value BluePill_STM32F103C)
      (footprint BluePill_STM32F103C:BluePill_STM32F103C)
      (datasheet www.rogerclark.net)
      (libsource (lib bluepill) (part BluePill_STM32F103C) (description ""))
      (sheetpath (names /) (tstamps /))
      (tstamp 5C87C7B8))
    (comp (ref J1)
      (value Conn_01x02_Male)
      (footprint Connector_Phoenix_MSTB:PhoenixContact_MSTBA_2,5_2-G_1x02_P5.00mm_Horizontal)
      (datasheet ~)
      (libsource (lib Connector) (part Conn_01x02_Male) (description "Generic connector, single row, 01x02, script generated (kicad-library-utils/schlib/autogen/connector/)"))
      (sheetpath (names /) (tstamps /))
      (tstamp 5C87CFB9))
    (comp (ref J7)
      (value Conn_01x02_Male)
      (footprint Connector_Phoenix_MSTB:PhoenixContact_MSTBA_2,5_2-G_1x02_P5.00mm_Horizontal)
      (datasheet ~)
      (libsource (lib Connector) (part Conn_01x02_Male) (description "Generic connector, single row, 01x02, script generated (kicad-library-utils/schlib/autogen/connector/)"))
      (sheetpath (names /) (tstamps /))
      (tstamp 5C87CFF1))
    (comp (ref SW1)
      (value SW_Push)
      (footprint Button_Switch_THT:SW_PUSH_6mm_H13mm)
      (libsource (lib Switch) (part SW_Push) (description "Push button switch, generic, two pins"))
      (sheetpath (names /) (tstamps /))
      (tstamp 5C87D332))
    (comp (ref C1)
      (value C_Small)
      (footprint Capacitor_SMD:C_0805_2012Metric_Pad1.15x1.40mm_HandSolder)
      (datasheet ~)
      (libsource (lib Device) (part C_Small) (description "Unpolarized capacitor, small symbol"))
      (sheetpath (names /) (tstamps /))
      (tstamp 5C87D5C4))
    (comp (ref U3)
      (value MAX31855KASA)
      (footprint Package_SO:SOIC-8_3.9x4.9mm_P1.27mm)
      (datasheet http://datasheets.maximintegrated.com/en/ds/MAX31855.pdf)
      (libsource (lib Sensor_Temperature) (part MAX31855KASA) (description "Cold Junction K-type Termocouple Interface, SPI, SO8"))
      (sheetpath (names /) (tstamps /))
      (tstamp 5C89531E))
    (comp (ref J3)
      (value Conn_01x02_Male)
      (footprint Connector_Phoenix_MSTB:PhoenixContact_MSTBA_2,5_2-G_1x02_P5.00mm_Horizontal)
      (datasheet ~)
      (libsource (lib Connector) (part Conn_01x02_Male) (description "Generic connector, single row, 01x02, script generated (kicad-library-utils/schlib/autogen/connector/)"))
      (sheetpath (names /) (tstamps /))
      (tstamp 5C895325))
    (comp (ref C3)
      (value C_Small)
      (footprint Capacitor_SMD:C_0805_2012Metric_Pad1.15x1.40mm_HandSolder)
      (datasheet ~)
      (libsource (lib Device) (part C_Small) (description "Unpolarized capacitor, small symbol"))
      (sheetpath (names /) (tstamps /))
      (tstamp 5C89532C))
    (comp (ref U5)
      (value MAX31855KASA)
      (footprint Package_SO:SOIC-8_3.9x4.9mm_P1.27mm)
      (datasheet http://datasheets.maximintegrated.com/en/ds/MAX31855.pdf)
      (libsource (lib Sensor_Temperature) (part MAX31855KASA) (description "Cold Junction K-type Termocouple Interface, SPI, SO8"))
      (sheetpath (names /) (tstamps /))
      (tstamp 5C895BB3))
    (comp (ref J5)
      (value Conn_01x02_Male)
      (footprint Connector_Phoenix_MSTB:PhoenixContact_MSTBA_2,5_2-G_1x02_P5.00mm_Horizontal)
      (datasheet ~)
      (libsource (lib Connector) (part Conn_01x02_Male) (description "Generic connector, single row, 01x02, script generated (kicad-library-utils/schlib/autogen/connector/)"))
      (sheetpath (names /) (tstamps /))
      (tstamp 5C895BBA))
    (comp (ref C5)
      (value C_Small)
      (footprint Capacitor_SMD:C_0805_2012Metric_Pad1.15x1.40mm_HandSolder)
      (datasheet ~)
      (libsource (lib Device) (part C_Small) (description "Unpolarized capacitor, small symbol"))
      (sheetpath (names /) (tstamps /))
      (tstamp 5C895BC1))
    (comp (ref U2)
      (value MAX31855KASA)
      (footprint Package_SO:SOIC-8_3.9x4.9mm_P1.27mm)
      (datasheet http://datasheets.maximintegrated.com/en/ds/MAX31855.pdf)
      (libsource (lib Sensor_Temperature) (part MAX31855KASA) (description "Cold Junction K-type Termocouple Interface, SPI, SO8"))
      (sheetpath (names /) (tstamps /))
      (tstamp 5C89B2C4))
    (comp (ref J2)
      (value Conn_01x02_Male)
      (footprint Connector_Phoenix_MSTB:PhoenixContact_MSTBA_2,5_2-G_1x02_P5.00mm_Horizontal)
      (datasheet ~)
      (libsource (lib Connector) (part Conn_01x02_Male) (description "Generic connector, single row, 01x02, script generated (kicad-library-utils/schlib/autogen/connector/)"))
      (sheetpath (names /) (tstamps /))
      (tstamp 5C89B2CB))
    (comp (ref C2)
      (value C_Small)
      (footprint Capacitor_SMD:C_0805_2012Metric_Pad1.15x1.40mm_HandSolder)
      (datasheet ~)
      (libsource (lib Device) (part C_Small) (description "Unpolarized capacitor, small symbol"))
      (sheetpath (names /) (tstamps /))
      (tstamp 5C89B2D2))
    (comp (ref U4)
      (value MAX31855KASA)
      (footprint Package_SO:SOIC-8_3.9x4.9mm_P1.27mm)
      (datasheet http://datasheets.maximintegrated.com/en/ds/MAX31855.pdf)
      (libsource (lib Sensor_Temperature) (part MAX31855KASA) (description "Cold Junction K-type Termocouple Interface, SPI, SO8"))
      (sheetpath (names /) (tstamps /))
      (tstamp 5C89B2F7))
    (comp (ref J4)
      (value Conn_01x02_Male)
      (footprint Connector_Phoenix_MSTB:PhoenixContact_MSTBA_2,5_2-G_1x02_P5.00mm_Horizontal)
      (datasheet ~)
      (libsource (lib Connector) (part Conn_01x02_Male) (description "Generic connector, single row, 01x02, script generated (kicad-library-utils/schlib/autogen/connector/)"))
      (sheetpath (names /) (tstamps /))
      (tstamp 5C89B2FE))
    (comp (ref C4)
      (value C_Small)
      (footprint Capacitor_SMD:C_0805_2012Metric_Pad1.15x1.40mm_HandSolder)
      (datasheet ~)
      (libsource (lib Device) (part C_Small) (description "Unpolarized capacitor, small symbol"))
      (sheetpath (names /) (tstamps /))
      (tstamp 5C89B305))
    (comp (ref U6)
      (value MAX31855KASA)
      (footprint Package_SO:SOIC-8_3.9x4.9mm_P1.27mm)
      (datasheet http://datasheets.maximintegrated.com/en/ds/MAX31855.pdf)
      (libsource (lib Sensor_Temperature) (part MAX31855KASA) (description "Cold Junction K-type Termocouple Interface, SPI, SO8"))
      (sheetpath (names /) (tstamps /))
      (tstamp 5C89B32A))
    (comp (ref J6)
      (value Conn_01x02_Male)
      (footprint Connector_Phoenix_MSTB:PhoenixContact_MSTBA_2,5_2-G_1x02_P5.00mm_Horizontal)
      (datasheet ~)
      (libsource (lib Connector) (part Conn_01x02_Male) (description "Generic connector, single row, 01x02, script generated (kicad-library-utils/schlib/autogen/connector/)"))
      (sheetpath (names /) (tstamps /))
      (tstamp 5C89B331))
    (comp (ref C6)
      (value C_Small)
      (footprint Capacitor_SMD:C_0805_2012Metric_Pad1.15x1.40mm_HandSolder)
      (datasheet ~)
      (libsource (lib Device) (part C_Small) (description "Unpolarized capacitor, small symbol"))
      (sheetpath (names /) (tstamps /))
      (tstamp 5C89B338))
    (comp (ref A1)
      (value SSD1306_I2C)
      (footprint Display_OLED:SSD1306_I2C)
      (libsource (lib temperature_monitoring-rescue) (part SSD1306_I2C-Display_OLED) (description ""))
      (sheetpath (names /) (tstamps /))
      (tstamp 5C8FE733))
    (comp (ref A2)
      (value MicroSD_Breakout)
      (footprint Connector_MicroSD:MicroSD_Breakout)
      (libsource (lib temperature_monitoring-rescue) (part MicroSD_Breakout-Connector_MicroSD) (description ""))
      (sheetpath (names /) (tstamps /))
      (tstamp 5C91EC8F)))
  (libparts
    (libpart (lib Connector) (part Conn_01x02_Male)
      (description "Generic connector, single row, 01x02, script generated (kicad-library-utils/schlib/autogen/connector/)")
      (docs ~)
      (footprints
        (fp Connector*:*_1x??_*))
      (fields
        (field (name Reference) J)
        (field (name Value) Conn_01x02_Male))
      (pins
        (pin (num 1) (name Pin_1) (type passive))
        (pin (num 2) (name Pin_2) (type passive))))
    (libpart (lib Device) (part C_Small)
      (description "Unpolarized capacitor, small symbol")
      (docs ~)
      (footprints
        (fp C_*))
      (fields
        (field (name Reference) C)
        (field (name Value) C_Small))
      (pins
        (pin (num 1) (name ~) (type passive))
        (pin (num 2) (name ~) (type passive))))
    (libpart (lib Device) (part R)
      (description Resistor)
      (docs ~)
      (footprints
        (fp R_*))
      (fields
        (field (name Reference) R)
        (field (name Value) R))
      (pins
        (pin (num 1) (name ~) (type passive))
        (pin (num 2) (name ~) (type passive))))
    (libpart (lib Isolator) (part PC817)
      (description "DC Optocoupler, Vce 35V, CTR 50-300%, DIP4")
      (docs http://www.soselectronic.cz/a_info/resource/d/pc817.pdf)
      (footprints
        (fp DIP*W7.62mm*))
      (fields
        (field (name Reference) U)
        (field (name Value) PC817)
        (field (name Footprint) Package_DIP:DIP-4_W7.62mm))
      (pins
        (pin (num 1) (name ~) (type passive))
        (pin (num 2) (name ~) (type passive))
        (pin (num 3) (name ~) (type passive))
        (pin (num 4) (name ~) (type passive))))
    (libpart (lib Sensor_Temperature) (part MAX31855KASA)
      (aliases
        (alias MAX31855JASA)
        (alias MAX31855NASA)
        (alias MAX31855SASA)
        (alias MAX31855TASA)
        (alias MAX31855EASA)
        (alias MAX31855RASA))
      (description "Cold Junction K-type Termocouple Interface, SPI, SO8")
      (docs http://datasheets.maximintegrated.com/en/ds/MAX31855.pdf)
      (footprints
        (fp SOIC*3.9x4.9mm*P1.27mm*))
      (fields
        (field (name Reference) U)
        (field (name Value) MAX31855KASA)
        (field (name Footprint) Package_SO:SOIC-8_3.9x4.9mm_P1.27mm))
      (pins
        (pin (num 1) (name GND) (type power_in))
        (pin (num 2) (name T-) (type passive))
        (pin (num 3) (name T+) (type passive))
        (pin (num 4) (name VCC) (type power_in))
        (pin (num 5) (name SCK) (type input))
        (pin (num 6) (name ~CS~) (type input))
        (pin (num 7) (name SO) (type 3state))))
    (libpart (lib Switch) (part SW_Push)
      (description "Push button switch, generic, two pins")
      (fields
        (field (name Reference) SW)
        (field (name Value) SW_Push))
      (pins
        (pin (num 1) (name 1) (type passive))
        (pin (num 2) (name 2) (type passive))))
    (libpart (lib bluepill) (part BluePill_STM32F103C)
      (fields
        (field (name Reference) U)
        (field (name Value) BluePill_STM32F103C)
        (field (name Footprint) BluePill_breakouts:BluePill_STM32F103C)
        (field (name Datasheet) www.rogerclark.net))
      (pins
        (pin (num 1) (name VBAT) (type power_in))
        (pin (num 2) (name PC13_LED) (type BiDi))
        (pin (num 3) (name PC14) (type BiDi))
        (pin (num 4) (name PC15) (type BiDi))
        (pin (num 5) (name PA0) (type BiDi))
        (pin (num 6) (name PA1) (type BiDi))
        (pin (num 7) (name PA2_TX2) (type BiDi))
        (pin (num 8) (name PA3_RX2) (type BiDi))
        (pin (num 9) (name PA4) (type BiDi))
        (pin (num 10) (name PA5_SCK1) (type BiDi))
        (pin (num 11) (name PA6_MISO1) (type BiDi))
        (pin (num 12) (name PA7_MOSI1) (type BiDi))
        (pin (num 13) (name PB0) (type BiDi))
        (pin (num 14) (name PB1) (type BiDi))
        (pin (num 15) (name PB10_SCL2) (type BiDi))
        (pin (num 16) (name PB11_SDA2) (type BiDi))
        (pin (num 17) (name NRST) (type input))
        (pin (num 18) (name VCC3V3) (type BiDi))
        (pin (num 19) (name GND) (type power_in))
        (pin (num 20) (name GND) (type power_in))
        (pin (num 21) (name PB12) (type BiDi))
        (pin (num 22) (name PB13_SCK2) (type BiDi))
        (pin (num 23) (name PB14_MISO2) (type BiDi))
        (pin (num 24) (name PB15_MOSI2) (type BiDi))
        (pin (num 25) (name PA8) (type BiDi))
        (pin (num 26) (name PA9_TX1) (type BiDi))
        (pin (num 27) (name PA10_RX1) (type BiDi))
        (pin (num 28) (name PA11_USB_D-) (type BiDi))
        (pin (num 29) (name PA12_USBD+) (type BiDi))
        (pin (num 30) (name PA15) (type BiDi))
        (pin (num 31) (name PB3) (type BiDi))
        (pin (num 32) (name PB4) (type BiDi))
        (pin (num 33) (name PB5) (type BiDi))
        (pin (num 34) (name PB6_SCL1) (type BiDi))
        (pin (num 35) (name PB7_SDA1) (type BiDi))
        (pin (num 36) (name PB8) (type BiDi))
        (pin (num 37) (name PB9) (type BiDi))
        (pin (num 38) (name 5V_USB) (type BiDi))
        (pin (num 39) (name GND) (type power_in))
        (pin (num 40) (name VCC3V3) (type BiDi))
        (pin (num 41) (name PA14_SWCLK) (type BiDi))
        (pin (num 42) (name PA13_SWDIO) (type BiDi))))
    (libpart (lib temperature_monitoring-rescue) (part MicroSD_Breakout-Connector_MicroSD)
      (fields
        (field (name Reference) A)
        (field (name Value) MicroSD_Breakout-Connector_MicroSD))
      (pins
        (pin (num 1) (name 3V3) (type power_in))
        (pin (num 2) (name CS) (type input))
        (pin (num 3) (name MOSI) (type input))
        (pin (num 4) (name CLK) (type input))
        (pin (num 5) (name MISO) (type 3state))
        (pin (num 6) (name GND) (type passive))))
    (libpart (lib temperature_monitoring-rescue) (part SSD1306_I2C-Display_OLED)
      (fields
        (field (name Reference) A)
        (field (name Value) SSD1306_I2C-Display_OLED))
      (pins
        (pin (num 1) (name GND) (type passive))
        (pin (num 2) (name VCC) (type power_in))
        (pin (num 3) (name SCL) (type input))
        (pin (num 4) (name SDA) (type BiDi)))))
  (libraries
    (library (logical Connector)
      (uri /usr/share/kicad/library/Connector.lib))
    (library (logical Device)
      (uri /usr/share/kicad/library/Device.lib))
    (library (logical Isolator)
      (uri /usr/share/kicad/library/Isolator.lib))
    (library (logical Sensor_Temperature)
      (uri "/home/victor/Téléchargements/PCB températures/eda/libraries/Sensor_Temperature.lib"))
    (library (logical Switch)
      (uri /usr/share/kicad/library/Switch.lib))
    (library (logical bluepill)
      (uri "/home/victor/Téléchargements/PCB températures/eda/libraries/bluepill.lib"))
    (library (logical temperature_monitoring-rescue)
      (uri "/home/victor/Téléchargements/PCB températures/eda/temperature_monitoring-rescue.lib")))
  (nets
    (net (code 1) (name /MISO)
      (node (ref U1) (pin 7))
      (node (ref U8) (pin 11))
      (node (ref U6) (pin 7))
      (node (ref U5) (pin 7))
      (node (ref U2) (pin 7))
      (node (ref U4) (pin 7))
      (node (ref A2) (pin 5))
      (node (ref U3) (pin 7)))
    (net (code 2) (name "Net-(J6-Pad2)")
      (node (ref J6) (pin 2))
      (node (ref U6) (pin 2)))
    (net (code 3) (name /CS_TH_4)
      (node (ref U4) (pin 6))
      (node (ref U8) (pin 8)))
    (net (code 4) (name /SPI_SCK)
      (node (ref U6) (pin 5))
      (node (ref U4) (pin 5))
      (node (ref U1) (pin 5))
      (node (ref U2) (pin 5))
      (node (ref A2) (pin 4))
      (node (ref U3) (pin 5))
      (node (ref U8) (pin 10))
      (node (ref U5) (pin 5)))
    (net (code 5) (name GND)
      (node (ref C1) (pin 2))
      (node (ref A2) (pin 6))
      (node (ref C5) (pin 2))
      (node (ref U8) (pin 39))
      (node (ref U8) (pin 19))
      (node (ref SW1) (pin 1))
      (node (ref A1) (pin 1))
      (node (ref U8) (pin 20))
      (node (ref U1) (pin 1))
      (node (ref U7) (pin 3))
      (node (ref U5) (pin 1))
      (node (ref U2) (pin 1))
      (node (ref C2) (pin 2))
      (node (ref U3) (pin 1))
      (node (ref C6) (pin 2))
      (node (ref U6) (pin 1))
      (node (ref U4) (pin 1))
      (node (ref C3) (pin 2))
      (node (ref C4) (pin 2)))
    (net (code 6) (name "Net-(J4-Pad2)")
      (node (ref J4) (pin 2))
      (node (ref U4) (pin 2)))
    (net (code 7) (name "Net-(J4-Pad1)")
      (node (ref J4) (pin 1))
      (node (ref U4) (pin 3)))
    (net (code 8) (name "Net-(J6-Pad1)")
      (node (ref J6) (pin 1))
      (node (ref U6) (pin 3)))
    (net (code 9) (name /CS_TH_6)
      (node (ref U6) (pin 6))
      (node (ref U8) (pin 15)))
    (net (code 10) (name "Net-(J2-Pad2)")
      (node (ref U2) (pin 2))
      (node (ref J2) (pin 2)))
    (net (code 11) (name "Net-(J2-Pad1)")
      (node (ref J2) (pin 1))
      (node (ref U2) (pin 3)))
    (net (code 12) (name /CS_TH_2)
      (node (ref U8) (pin 6))
      (node (ref U2) (pin 6)))
    (net (code 13) (name /MOSI)
      (node (ref A2) (pin 3))
      (node (ref U8) (pin 12)))
    (net (code 14) (name +3V3)
      (node (ref U6) (pin 4))
      (node (ref C1) (pin 1))
      (node (ref U3) (pin 4))
      (node (ref U8) (pin 18))
      (node (ref C5) (pin 1))
      (node (ref U8) (pin 40))
      (node (ref U5) (pin 4))
      (node (ref U1) (pin 4))
      (node (ref C3) (pin 1))
      (node (ref U4) (pin 4))
      (node (ref A2) (pin 1))
      (node (ref C6) (pin 1))
      (node (ref C2) (pin 1))
      (node (ref U2) (pin 4))
      (node (ref C4) (pin 1))
      (node (ref A1) (pin 2)))
    (net (code 15) (name /CS_SD)
      (node (ref A2) (pin 2))
      (node (ref U8) (pin 16)))
    (net (code 16) (name /SCL)
      (node (ref U8) (pin 34))
      (node (ref A1) (pin 3)))
    (net (code 17) (name "Net-(U8-Pad31)")
      (node (ref U8) (pin 31)))
    (net (code 18) (name "Net-(U8-Pad30)")
      (node (ref U8) (pin 30)))
    (net (code 19) (name "Net-(U8-Pad29)")
      (node (ref U8) (pin 29)))
    (net (code 20) (name "Net-(U8-Pad28)")
      (node (ref U8) (pin 28)))
    (net (code 21) (name /CS_TH_3)
      (node (ref U8) (pin 7))
      (node (ref U3) (pin 6)))
    (net (code 22) (name /CS_TH_1)
      (node (ref U8) (pin 5))
      (node (ref U1) (pin 6)))
    (net (code 23) (name "Net-(U8-Pad27)")
      (node (ref U8) (pin 27)))
    (net (code 24) (name /CS_TH_5)
      (node (ref U5) (pin 6))
      (node (ref U8) (pin 9)))
    (net (code 25) (name "Net-(U8-Pad26)")
      (node (ref U8) (pin 26)))
    (net (code 26) (name "Net-(U8-Pad25)")
      (node (ref U8) (pin 25)))
    (net (code 27) (name /external_trigger)
      (node (ref U7) (pin 4))
      (node (ref U8) (pin 33)))
    (net (code 28) (name /button_trigger)
      (node (ref SW1) (pin 2))
      (node (ref U8) (pin 32)))
    (net (code 29) (name /SDA)
      (node (ref U8) (pin 35))
      (node (ref A1) (pin 4)))
    (net (code 30) (name "Net-(U8-Pad42)")
      (node (ref U8) (pin 42)))
    (net (code 31) (name "Net-(U8-Pad41)")
      (node (ref U8) (pin 41)))
    (net (code 32) (name "Net-(J1-Pad2)")
      (node (ref J1) (pin 2))
      (node (ref U1) (pin 2)))
    (net (code 33) (name "Net-(J1-Pad1)")
      (node (ref U1) (pin 3))
      (node (ref J1) (pin 1)))
    (net (code 34) (name "Net-(J7-Pad2)")
      (node (ref J7) (pin 2))
      (node (ref U7) (pin 2)))
    (net (code 35) (name "Net-(U8-Pad38)")
      (node (ref U8) (pin 38)))
    (net (code 36) (name "Net-(U8-Pad37)")
      (node (ref U8) (pin 37)))
    (net (code 37) (name "Net-(U8-Pad4)")
      (node (ref U8) (pin 4)))
    (net (code 38) (name "Net-(U8-Pad3)")
      (node (ref U8) (pin 3)))
    (net (code 39) (name "Net-(U8-Pad2)")
      (node (ref U8) (pin 2)))
    (net (code 40) (name "Net-(U8-Pad1)")
      (node (ref U8) (pin 1)))
    (net (code 41) (name "Net-(J7-Pad1)")
      (node (ref R1) (pin 2))
      (node (ref J7) (pin 1)))
    (net (code 42) (name "Net-(R1-Pad1)")
      (node (ref R1) (pin 1))
      (node (ref U7) (pin 1)))
    (net (code 43) (name "Net-(U8-Pad23)")
      (node (ref U8) (pin 23)))
    (net (code 44) (name "Net-(U8-Pad17)")
      (node (ref U8) (pin 17)))
    (net (code 45) (name "Net-(U8-Pad36)")
      (node (ref U8) (pin 36)))
    (net (code 46) (name "Net-(U8-Pad24)")
      (node (ref U8) (pin 24)))
    (net (code 47) (name "Net-(U8-Pad14)")
      (node (ref U8) (pin 14)))
    (net (code 48) (name "Net-(U8-Pad13)")
      (node (ref U8) (pin 13)))
    (net (code 49) (name "Net-(U8-Pad22)")
      (node (ref U8) (pin 22)))
    (net (code 50) (name "Net-(U8-Pad21)")
      (node (ref U8) (pin 21)))
    (net (code 51) (name "Net-(J5-Pad2)")
      (node (ref J5) (pin 2))
      (node (ref U5) (pin 2)))
    (net (code 52) (name "Net-(J3-Pad2)")
      (node (ref J3) (pin 2))
      (node (ref U3) (pin 2)))
    (net (code 53) (name "Net-(J3-Pad1)")
      (node (ref U3) (pin 3))
      (node (ref J3) (pin 1)))
    (net (code 54) (name "Net-(J5-Pad1)")
      (node (ref U5) (pin 3))
      (node (ref J5) (pin 1)))))