EESchema Schematic File Version 4
LIBS:temperature_monitoring-cache
EELAYER 26 0
EELAYER END
$Descr A4 11693 8268
encoding utf-8
Sheet 1 1
Title "Temperature monitoring"
Date "2019-03-13"
Rev "1"
Comp "Institut Maupertuis"
Comment1 "Victor Lamoine"
Comment2 ""
Comment3 ""
Comment4 ""
$EndDescr
$Comp
L Isolator:PC817 U7
U 1 1 5C87BD08
P 9900 3750
F 0 "U7" H 9900 4075 50  0000 C CNN
F 1 "PC817" H 9900 3984 50  0000 C CNN
F 2 "Package_DIP:DIP-4_W7.62mm" H 9700 3550 50  0001 L CIN
F 3 "http://www.soselectronic.cz/a_info/resource/d/pc817.pdf" H 9900 3750 50  0001 L CNN
	1    9900 3750
	1    0    0    -1  
$EndComp
$Comp
L Device:R R1
U 1 1 5C87BD84
P 9300 3650
F 0 "R1" V 9093 3650 50  0000 C CNN
F 1 "1000" V 9184 3650 50  0000 C CNN
F 2 "Resistor_THT:R_Axial_DIN0207_L6.3mm_D2.5mm_P10.16mm_Horizontal" V 9230 3650 50  0001 C CNN
F 3 "~" H 9300 3650 50  0001 C CNN
	1    9300 3650
	0    1    1    0   
$EndComp
$Comp
L Sensor_Temperature:MAX31855KASA U1
U 1 1 5C87C3EA
P 1700 1250
F 0 "U1" H 1700 1828 50  0000 C CNN
F 1 "MAX31855KASA" H 1700 1737 50  0000 C CNN
F 2 "Package_SO:SOIC-8_3.9x4.9mm_P1.27mm" H 2700 900 50  0001 C CIN
F 3 "http://datasheets.maximintegrated.com/en/ds/MAX31855.pdf" H 1700 1250 50  0001 C CNN
	1    1700 1250
	1    0    0    -1  
$EndComp
$Comp
L bluepill:BluePill_STM32F103C U8
U 1 1 5C87C7B8
P 2050 5950
F 0 "U8" H 2075 4478 50  0000 C CNN
F 1 "BluePill_STM32F103C" H 2075 4387 50  0000 C CNN
F 2 "BluePill_STM32F103C:BluePill_STM32F103C" H 2100 4350 50  0001 C CNN
F 3 "www.rogerclark.net" H 2050 4450 50  0001 C CNN
	1    2050 5950
	1    0    0    -1  
$EndComp
$Comp
L Connector:Conn_01x02_Male J1
U 1 1 5C87CFB9
P 800 1200
F 0 "J1" H 906 1378 50  0000 C CNN
F 1 "Conn_01x02_Male" H 906 1287 50  0000 C CNN
F 2 "Connector_Phoenix_MSTB:PhoenixContact_MSTBA_2,5_2-G_1x02_P5.00mm_Horizontal" H 800 1200 50  0001 C CNN
F 3 "~" H 800 1200 50  0001 C CNN
	1    800  1200
	1    0    0    -1  
$EndComp
$Comp
L Connector:Conn_01x02_Male J7
U 1 1 5C87CFF1
P 8800 3750
F 0 "J7" H 8906 3928 50  0000 C CNN
F 1 "Conn_01x02_Male" H 8850 3550 50  0000 C CNN
F 2 "Connector_Phoenix_MSTB:PhoenixContact_MSTBA_2,5_2-G_1x02_P5.00mm_Horizontal" H 8800 3750 50  0001 C CNN
F 3 "~" H 8800 3750 50  0001 C CNN
	1    8800 3750
	1    0    0    -1  
$EndComp
$Comp
L Switch:SW_Push SW1
U 1 1 5C87D332
P 9800 2900
F 0 "SW1" H 9800 3185 50  0000 C CNN
F 1 "SW_Push" H 9800 3094 50  0000 C CNN
F 2 "Button_Switch_THT:SW_PUSH_6mm_H13mm" H 9800 3100 50  0001 C CNN
F 3 "" H 9800 3100 50  0001 C CNN
	1    9800 2900
	1    0    0    -1  
$EndComp
$Comp
L Device:C_Small C1
U 1 1 5C87D5C4
P 2750 950
F 0 "C1" H 2842 996 50  0000 L CNN
F 1 "C_Small" H 2842 905 50  0000 L CNN
F 2 "Capacitor_SMD:C_0805_2012Metric_Pad1.15x1.40mm_HandSolder" H 2750 950 50  0001 C CNN
F 3 "~" H 2750 950 50  0001 C CNN
	1    2750 950 
	1    0    0    -1  
$EndComp
Wire Wire Line
	1300 1150 1250 1150
Wire Wire Line
	1250 1150 1250 1200
Wire Wire Line
	1250 1200 1000 1200
Wire Wire Line
	1000 1300 1250 1300
Wire Wire Line
	1250 1300 1250 1350
Wire Wire Line
	1250 1350 1300 1350
$Comp
L power:GND #PWR0101
U 1 1 5C88DFA7
P 2750 1100
F 0 "#PWR0101" H 2750 850 50  0001 C CNN
F 1 "GND" H 2755 927 50  0000 C CNN
F 2 "" H 2750 1100 50  0001 C CNN
F 3 "" H 2750 1100 50  0001 C CNN
	1    2750 1100
	1    0    0    -1  
$EndComp
Wire Wire Line
	2750 1050 2750 1100
$Comp
L power:GND #PWR0102
U 1 1 5C88E063
P 1700 1700
F 0 "#PWR0102" H 1700 1450 50  0001 C CNN
F 1 "GND" H 1705 1527 50  0000 C CNN
F 2 "" H 1700 1700 50  0001 C CNN
F 3 "" H 1700 1700 50  0001 C CNN
	1    1700 1700
	1    0    0    -1  
$EndComp
Wire Wire Line
	1700 1650 1700 1700
Text Label 2200 1050 0    50   ~ 0
SPI_SCK
Text Label 2200 1150 0    50   ~ 0
MISO
Wire Wire Line
	2200 1150 2100 1150
Wire Wire Line
	2100 1050 2200 1050
Text Label 2200 1350 0    50   ~ 0
CS_TH_1
Wire Wire Line
	2100 1350 2200 1350
$Comp
L power:PWR_FLAG #FLG0101
U 1 1 5C88E618
P 10950 800
F 0 "#FLG0101" H 10950 875 50  0001 C CNN
F 1 "PWR_FLAG" H 10950 974 50  0000 C CNN
F 2 "" H 10950 800 50  0001 C CNN
F 3 "~" H 10950 800 50  0001 C CNN
	1    10950 800 
	1    0    0    -1  
$EndComp
$Comp
L power:GND #PWR0103
U 1 1 5C88E906
P 10950 850
F 0 "#PWR0103" H 10950 600 50  0001 C CNN
F 1 "GND" H 10955 677 50  0000 C CNN
F 2 "" H 10950 850 50  0001 C CNN
F 3 "" H 10950 850 50  0001 C CNN
	1    10950 850 
	1    0    0    -1  
$EndComp
Wire Wire Line
	10950 850  10950 800 
Wire Wire Line
	2750 700  2750 850 
Connection ~ 2750 850 
Wire Wire Line
	9450 3650 9600 3650
Wire Wire Line
	9600 3850 9000 3850
Wire Wire Line
	9000 3750 9150 3750
Wire Wire Line
	9150 3750 9150 3650
NoConn ~ 1200 5250
NoConn ~ 1200 5350
NoConn ~ 1200 5450
NoConn ~ 1200 5550
NoConn ~ 1200 6450
NoConn ~ 1200 6550
NoConn ~ 1200 6850
NoConn ~ 2950 5450
NoConn ~ 2950 5550
NoConn ~ 2950 5650
NoConn ~ 2950 6850
NoConn ~ 2950 6950
NoConn ~ 2950 7050
NoConn ~ 2950 7150
$Comp
L power:GND #PWR0104
U 1 1 5C89107A
P 1050 7200
F 0 "#PWR0104" H 1050 6950 50  0001 C CNN
F 1 "GND" H 1055 7027 50  0000 C CNN
F 2 "" H 1050 7200 50  0001 C CNN
F 3 "" H 1050 7200 50  0001 C CNN
	1    1050 7200
	1    0    0    -1  
$EndComp
Wire Wire Line
	1200 7150 1050 7150
Wire Wire Line
	1200 7050 1050 7050
Wire Wire Line
	1050 7050 1050 7150
Connection ~ 1050 7150
Wire Wire Line
	1050 7150 1050 7200
$Comp
L power:GND #PWR0105
U 1 1 5C891C4C
P 3200 5400
F 0 "#PWR0105" H 3200 5150 50  0001 C CNN
F 1 "GND" H 3205 5227 50  0000 C CNN
F 2 "" H 3200 5400 50  0001 C CNN
F 3 "" H 3200 5400 50  0001 C CNN
	1    3200 5400
	1    0    0    -1  
$EndComp
Wire Wire Line
	2950 5350 3200 5350
Wire Wire Line
	3200 5350 3200 5400
$Comp
L power:GND #PWR0106
U 1 1 5C892757
P 10350 3850
F 0 "#PWR0106" H 10350 3600 50  0001 C CNN
F 1 "GND" H 10355 3677 50  0000 C CNN
F 2 "" H 10350 3850 50  0001 C CNN
F 3 "" H 10350 3850 50  0001 C CNN
	1    10350 3850
	1    0    0    -1  
$EndComp
Wire Wire Line
	10200 3850 10350 3850
Wire Wire Line
	10200 3650 10450 3650
Text Label 10450 3650 0    50   ~ 0
external_trigger
Text Label 10100 2900 0    50   ~ 0
button_trigger
Wire Wire Line
	10000 2900 10100 2900
$Comp
L power:GND #PWR0107
U 1 1 5C8938C2
P 9450 2900
F 0 "#PWR0107" H 9450 2650 50  0001 C CNN
F 1 "GND" H 9455 2727 50  0000 C CNN
F 2 "" H 9450 2900 50  0001 C CNN
F 3 "" H 9450 2900 50  0001 C CNN
	1    9450 2900
	1    0    0    -1  
$EndComp
Wire Wire Line
	9450 2900 9600 2900
Text Label 3100 6050 0    50   ~ 0
button_trigger
Text Label 3100 5950 0    50   ~ 0
external_trigger
Wire Wire Line
	1700 850  2750 850 
$Comp
L Sensor_Temperature:MAX31855KASA U3
U 1 1 5C89531E
P 4450 1250
F 0 "U3" H 4450 1828 50  0000 C CNN
F 1 "MAX31855KASA" H 4450 1737 50  0000 C CNN
F 2 "Package_SO:SOIC-8_3.9x4.9mm_P1.27mm" H 5450 900 50  0001 C CIN
F 3 "http://datasheets.maximintegrated.com/en/ds/MAX31855.pdf" H 4450 1250 50  0001 C CNN
	1    4450 1250
	1    0    0    -1  
$EndComp
$Comp
L Connector:Conn_01x02_Male J3
U 1 1 5C895325
P 3550 1200
F 0 "J3" H 3656 1378 50  0000 C CNN
F 1 "Conn_01x02_Male" H 3656 1287 50  0000 C CNN
F 2 "Connector_Phoenix_MSTB:PhoenixContact_MSTBA_2,5_2-G_1x02_P5.00mm_Horizontal" H 3550 1200 50  0001 C CNN
F 3 "~" H 3550 1200 50  0001 C CNN
	1    3550 1200
	1    0    0    -1  
$EndComp
$Comp
L Device:C_Small C3
U 1 1 5C89532C
P 5500 950
F 0 "C3" H 5592 996 50  0000 L CNN
F 1 "C_Small" H 5592 905 50  0000 L CNN
F 2 "Capacitor_SMD:C_0805_2012Metric_Pad1.15x1.40mm_HandSolder" H 5500 950 50  0001 C CNN
F 3 "~" H 5500 950 50  0001 C CNN
	1    5500 950 
	1    0    0    -1  
$EndComp
Wire Wire Line
	4050 1150 4000 1150
Wire Wire Line
	4000 1150 4000 1200
Wire Wire Line
	4000 1200 3750 1200
Wire Wire Line
	3750 1300 4000 1300
Wire Wire Line
	4000 1300 4000 1350
Wire Wire Line
	4000 1350 4050 1350
$Comp
L power:GND #PWR0108
U 1 1 5C895339
P 5500 1100
F 0 "#PWR0108" H 5500 850 50  0001 C CNN
F 1 "GND" H 5505 927 50  0000 C CNN
F 2 "" H 5500 1100 50  0001 C CNN
F 3 "" H 5500 1100 50  0001 C CNN
	1    5500 1100
	1    0    0    -1  
$EndComp
Wire Wire Line
	5500 1050 5500 1100
$Comp
L power:GND #PWR0109
U 1 1 5C895340
P 4450 1700
F 0 "#PWR0109" H 4450 1450 50  0001 C CNN
F 1 "GND" H 4455 1527 50  0000 C CNN
F 2 "" H 4450 1700 50  0001 C CNN
F 3 "" H 4450 1700 50  0001 C CNN
	1    4450 1700
	1    0    0    -1  
$EndComp
Wire Wire Line
	4450 1650 4450 1700
Text Label 4950 1050 0    50   ~ 0
SPI_SCK
Text Label 4950 1150 0    50   ~ 0
MISO
Wire Wire Line
	4950 1150 4850 1150
Wire Wire Line
	4850 1050 4950 1050
Text Label 4950 1350 0    50   ~ 0
CS_TH_3
Wire Wire Line
	4850 1350 4950 1350
Wire Wire Line
	5500 700  5500 850 
Connection ~ 5500 850 
Wire Wire Line
	4450 850  5500 850 
$Comp
L Sensor_Temperature:MAX31855KASA U5
U 1 1 5C895BB3
P 7150 1250
F 0 "U5" H 7150 1828 50  0000 C CNN
F 1 "MAX31855KASA" H 7150 1737 50  0000 C CNN
F 2 "Package_SO:SOIC-8_3.9x4.9mm_P1.27mm" H 8150 900 50  0001 C CIN
F 3 "http://datasheets.maximintegrated.com/en/ds/MAX31855.pdf" H 7150 1250 50  0001 C CNN
	1    7150 1250
	1    0    0    -1  
$EndComp
$Comp
L Connector:Conn_01x02_Male J5
U 1 1 5C895BBA
P 6250 1200
F 0 "J5" H 6356 1378 50  0000 C CNN
F 1 "Conn_01x02_Male" H 6356 1287 50  0000 C CNN
F 2 "Connector_Phoenix_MSTB:PhoenixContact_MSTBA_2,5_2-G_1x02_P5.00mm_Horizontal" H 6250 1200 50  0001 C CNN
F 3 "~" H 6250 1200 50  0001 C CNN
	1    6250 1200
	1    0    0    -1  
$EndComp
$Comp
L Device:C_Small C5
U 1 1 5C895BC1
P 8200 950
F 0 "C5" H 8292 996 50  0000 L CNN
F 1 "C_Small" H 8292 905 50  0000 L CNN
F 2 "Capacitor_SMD:C_0805_2012Metric_Pad1.15x1.40mm_HandSolder" H 8200 950 50  0001 C CNN
F 3 "~" H 8200 950 50  0001 C CNN
	1    8200 950 
	1    0    0    -1  
$EndComp
Wire Wire Line
	6750 1150 6700 1150
Wire Wire Line
	6700 1150 6700 1200
Wire Wire Line
	6700 1200 6450 1200
Wire Wire Line
	6450 1300 6700 1300
Wire Wire Line
	6700 1300 6700 1350
Wire Wire Line
	6700 1350 6750 1350
$Comp
L power:GND #PWR0110
U 1 1 5C895BCE
P 8200 1100
F 0 "#PWR0110" H 8200 850 50  0001 C CNN
F 1 "GND" H 8205 927 50  0000 C CNN
F 2 "" H 8200 1100 50  0001 C CNN
F 3 "" H 8200 1100 50  0001 C CNN
	1    8200 1100
	1    0    0    -1  
$EndComp
Wire Wire Line
	8200 1050 8200 1100
$Comp
L power:GND #PWR0111
U 1 1 5C895BD5
P 7150 1700
F 0 "#PWR0111" H 7150 1450 50  0001 C CNN
F 1 "GND" H 7155 1527 50  0000 C CNN
F 2 "" H 7150 1700 50  0001 C CNN
F 3 "" H 7150 1700 50  0001 C CNN
	1    7150 1700
	1    0    0    -1  
$EndComp
Wire Wire Line
	7150 1650 7150 1700
Text Label 7650 1050 0    50   ~ 0
SPI_SCK
Text Label 7650 1150 0    50   ~ 0
MISO
Wire Wire Line
	7650 1150 7550 1150
Wire Wire Line
	7550 1050 7650 1050
Text Label 7650 1350 0    50   ~ 0
CS_TH_5
Wire Wire Line
	7550 1350 7650 1350
Wire Wire Line
	8200 700  8200 850 
Connection ~ 8200 850 
Wire Wire Line
	7150 850  8200 850 
$Comp
L Sensor_Temperature:MAX31855KASA U2
U 1 1 5C89B2C4
P 1700 2750
F 0 "U2" H 1700 3328 50  0000 C CNN
F 1 "MAX31855KASA" H 1700 3237 50  0000 C CNN
F 2 "Package_SO:SOIC-8_3.9x4.9mm_P1.27mm" H 2700 2400 50  0001 C CIN
F 3 "http://datasheets.maximintegrated.com/en/ds/MAX31855.pdf" H 1700 2750 50  0001 C CNN
	1    1700 2750
	1    0    0    -1  
$EndComp
$Comp
L Connector:Conn_01x02_Male J2
U 1 1 5C89B2CB
P 800 2700
F 0 "J2" H 906 2878 50  0000 C CNN
F 1 "Conn_01x02_Male" H 906 2787 50  0000 C CNN
F 2 "Connector_Phoenix_MSTB:PhoenixContact_MSTBA_2,5_2-G_1x02_P5.00mm_Horizontal" H 800 2700 50  0001 C CNN
F 3 "~" H 800 2700 50  0001 C CNN
	1    800  2700
	1    0    0    -1  
$EndComp
$Comp
L Device:C_Small C2
U 1 1 5C89B2D2
P 2750 2450
F 0 "C2" H 2842 2496 50  0000 L CNN
F 1 "C_Small" H 2842 2405 50  0000 L CNN
F 2 "Capacitor_SMD:C_0805_2012Metric_Pad1.15x1.40mm_HandSolder" H 2750 2450 50  0001 C CNN
F 3 "~" H 2750 2450 50  0001 C CNN
	1    2750 2450
	1    0    0    -1  
$EndComp
Wire Wire Line
	1300 2650 1250 2650
Wire Wire Line
	1250 2650 1250 2700
Wire Wire Line
	1250 2700 1000 2700
Wire Wire Line
	1000 2800 1250 2800
Wire Wire Line
	1250 2800 1250 2850
Wire Wire Line
	1250 2850 1300 2850
$Comp
L power:GND #PWR0112
U 1 1 5C89B2DF
P 2750 2600
F 0 "#PWR0112" H 2750 2350 50  0001 C CNN
F 1 "GND" H 2755 2427 50  0000 C CNN
F 2 "" H 2750 2600 50  0001 C CNN
F 3 "" H 2750 2600 50  0001 C CNN
	1    2750 2600
	1    0    0    -1  
$EndComp
Wire Wire Line
	2750 2550 2750 2600
$Comp
L power:GND #PWR0113
U 1 1 5C89B2E6
P 1700 3200
F 0 "#PWR0113" H 1700 2950 50  0001 C CNN
F 1 "GND" H 1705 3027 50  0000 C CNN
F 2 "" H 1700 3200 50  0001 C CNN
F 3 "" H 1700 3200 50  0001 C CNN
	1    1700 3200
	1    0    0    -1  
$EndComp
Wire Wire Line
	1700 3150 1700 3200
Text Label 2200 2550 0    50   ~ 0
SPI_SCK
Text Label 2200 2650 0    50   ~ 0
MISO
Wire Wire Line
	2200 2650 2100 2650
Wire Wire Line
	2100 2550 2200 2550
Text Label 2200 2850 0    50   ~ 0
CS_TH_2
Wire Wire Line
	2100 2850 2200 2850
Wire Wire Line
	2750 2200 2750 2350
Connection ~ 2750 2350
Wire Wire Line
	1700 2350 2750 2350
$Comp
L Sensor_Temperature:MAX31855KASA U4
U 1 1 5C89B2F7
P 4450 2750
F 0 "U4" H 4450 3328 50  0000 C CNN
F 1 "MAX31855KASA" H 4450 3237 50  0000 C CNN
F 2 "Package_SO:SOIC-8_3.9x4.9mm_P1.27mm" H 5450 2400 50  0001 C CIN
F 3 "http://datasheets.maximintegrated.com/en/ds/MAX31855.pdf" H 4450 2750 50  0001 C CNN
	1    4450 2750
	1    0    0    -1  
$EndComp
$Comp
L Connector:Conn_01x02_Male J4
U 1 1 5C89B2FE
P 3550 2700
F 0 "J4" H 3656 2878 50  0000 C CNN
F 1 "Conn_01x02_Male" H 3656 2787 50  0000 C CNN
F 2 "Connector_Phoenix_MSTB:PhoenixContact_MSTBA_2,5_2-G_1x02_P5.00mm_Horizontal" H 3550 2700 50  0001 C CNN
F 3 "~" H 3550 2700 50  0001 C CNN
	1    3550 2700
	1    0    0    -1  
$EndComp
$Comp
L Device:C_Small C4
U 1 1 5C89B305
P 5500 2450
F 0 "C4" H 5592 2496 50  0000 L CNN
F 1 "C_Small" H 5592 2405 50  0000 L CNN
F 2 "Capacitor_SMD:C_0805_2012Metric_Pad1.15x1.40mm_HandSolder" H 5500 2450 50  0001 C CNN
F 3 "~" H 5500 2450 50  0001 C CNN
	1    5500 2450
	1    0    0    -1  
$EndComp
Wire Wire Line
	4050 2650 4000 2650
Wire Wire Line
	4000 2650 4000 2700
Wire Wire Line
	4000 2700 3750 2700
Wire Wire Line
	3750 2800 4000 2800
Wire Wire Line
	4000 2800 4000 2850
Wire Wire Line
	4000 2850 4050 2850
$Comp
L power:GND #PWR0114
U 1 1 5C89B312
P 5500 2600
F 0 "#PWR0114" H 5500 2350 50  0001 C CNN
F 1 "GND" H 5505 2427 50  0000 C CNN
F 2 "" H 5500 2600 50  0001 C CNN
F 3 "" H 5500 2600 50  0001 C CNN
	1    5500 2600
	1    0    0    -1  
$EndComp
Wire Wire Line
	5500 2550 5500 2600
$Comp
L power:GND #PWR0115
U 1 1 5C89B319
P 4450 3200
F 0 "#PWR0115" H 4450 2950 50  0001 C CNN
F 1 "GND" H 4455 3027 50  0000 C CNN
F 2 "" H 4450 3200 50  0001 C CNN
F 3 "" H 4450 3200 50  0001 C CNN
	1    4450 3200
	1    0    0    -1  
$EndComp
Wire Wire Line
	4450 3150 4450 3200
Text Label 4950 2550 0    50   ~ 0
SPI_SCK
Text Label 4950 2650 0    50   ~ 0
MISO
Wire Wire Line
	4950 2650 4850 2650
Wire Wire Line
	4850 2550 4950 2550
Text Label 4950 2850 0    50   ~ 0
CS_TH_4
Wire Wire Line
	4850 2850 4950 2850
Wire Wire Line
	5500 2200 5500 2350
Connection ~ 5500 2350
Wire Wire Line
	4450 2350 5500 2350
$Comp
L Sensor_Temperature:MAX31855KASA U6
U 1 1 5C89B32A
P 7150 2750
F 0 "U6" H 7150 3328 50  0000 C CNN
F 1 "MAX31855KASA" H 7150 3237 50  0000 C CNN
F 2 "Package_SO:SOIC-8_3.9x4.9mm_P1.27mm" H 8150 2400 50  0001 C CIN
F 3 "http://datasheets.maximintegrated.com/en/ds/MAX31855.pdf" H 7150 2750 50  0001 C CNN
	1    7150 2750
	1    0    0    -1  
$EndComp
$Comp
L Connector:Conn_01x02_Male J6
U 1 1 5C89B331
P 6250 2700
F 0 "J6" H 6356 2878 50  0000 C CNN
F 1 "Conn_01x02_Male" H 6356 2787 50  0000 C CNN
F 2 "Connector_Phoenix_MSTB:PhoenixContact_MSTBA_2,5_2-G_1x02_P5.00mm_Horizontal" H 6250 2700 50  0001 C CNN
F 3 "~" H 6250 2700 50  0001 C CNN
	1    6250 2700
	1    0    0    -1  
$EndComp
$Comp
L Device:C_Small C6
U 1 1 5C89B338
P 8200 2450
F 0 "C6" H 8292 2496 50  0000 L CNN
F 1 "C_Small" H 8292 2405 50  0000 L CNN
F 2 "Capacitor_SMD:C_0805_2012Metric_Pad1.15x1.40mm_HandSolder" H 8200 2450 50  0001 C CNN
F 3 "~" H 8200 2450 50  0001 C CNN
	1    8200 2450
	1    0    0    -1  
$EndComp
Wire Wire Line
	6750 2650 6700 2650
Wire Wire Line
	6700 2650 6700 2700
Wire Wire Line
	6700 2700 6450 2700
Wire Wire Line
	6450 2800 6700 2800
Wire Wire Line
	6700 2800 6700 2850
Wire Wire Line
	6700 2850 6750 2850
$Comp
L power:GND #PWR0116
U 1 1 5C89B345
P 8200 2600
F 0 "#PWR0116" H 8200 2350 50  0001 C CNN
F 1 "GND" H 8205 2427 50  0000 C CNN
F 2 "" H 8200 2600 50  0001 C CNN
F 3 "" H 8200 2600 50  0001 C CNN
	1    8200 2600
	1    0    0    -1  
$EndComp
Wire Wire Line
	8200 2550 8200 2600
$Comp
L power:GND #PWR0117
U 1 1 5C89B34C
P 7150 3200
F 0 "#PWR0117" H 7150 2950 50  0001 C CNN
F 1 "GND" H 7155 3027 50  0000 C CNN
F 2 "" H 7150 3200 50  0001 C CNN
F 3 "" H 7150 3200 50  0001 C CNN
	1    7150 3200
	1    0    0    -1  
$EndComp
Wire Wire Line
	7150 3150 7150 3200
Text Label 7650 2550 0    50   ~ 0
SPI_SCK
Text Label 7650 2650 0    50   ~ 0
MISO
Wire Wire Line
	7650 2650 7550 2650
Wire Wire Line
	7550 2550 7650 2550
Text Label 7650 2850 0    50   ~ 0
CS_TH_6
Wire Wire Line
	7550 2850 7650 2850
Wire Wire Line
	8200 2200 8200 2350
NoConn ~ 2000 4050
NoConn ~ 2100 4050
Text Label 1100 5750 2    50   ~ 0
CS_TH_2
Text Label 1100 5850 2    50   ~ 0
CS_TH_3
Text Label 1100 5950 2    50   ~ 0
CS_TH_4
Text Label 1100 6050 2    50   ~ 0
CS_TH_5
Text Label 1100 6650 2    50   ~ 0
CS_TH_6
Text Label 1100 5650 2    50   ~ 0
CS_TH_1
Text Label 1100 6150 2    50   ~ 0
SPI_SCK
Text Label 1100 6250 2    50   ~ 0
MISO
Text Label 1100 6350 2    50   ~ 0
MOSI
Wire Wire Line
	1200 6150 1100 6150
Wire Wire Line
	1100 6250 1200 6250
Wire Wire Line
	1200 6350 1100 6350
Text Label 3100 5850 0    50   ~ 0
SCL
Text Label 3100 5750 0    50   ~ 0
SDA
Wire Wire Line
	2950 5750 3100 5750
Wire Wire Line
	3100 5850 2950 5850
Wire Wire Line
	3100 6050 2950 6050
Wire Wire Line
	2950 5950 3100 5950
Wire Wire Line
	7150 2350 8200 2350
Connection ~ 8200 2350
$Comp
L power:+3.3V #PWR0119
U 1 1 5C8EDF25
P 2950 5100
F 0 "#PWR0119" H 2950 4950 50  0001 C CNN
F 1 "+3.3V" H 2965 5273 50  0000 C CNN
F 2 "" H 2950 5100 50  0001 C CNN
F 3 "" H 2950 5100 50  0001 C CNN
	1    2950 5100
	1    0    0    -1  
$EndComp
Wire Wire Line
	2950 5100 2950 5250
Text Notes 9200 4250 0    118  ~ 0
External trigger
Text Notes 9250 2500 0    118  ~ 0
Button trigger
Text Notes 3750 3700 0    118  ~ 0
Temperature sensors
$Comp
L temperature_monitoring-rescue:SSD1306_I2C-Display_OLED A1
U 1 1 5C8FE733
P 5600 5150
F 0 "A1" H 5422 5096 50  0000 R CNN
F 1 "SSD1306_I2C" H 5422 5005 50  0000 R CNN
F 2 "Display_OLED:SSD1306_I2C" H 5650 5000 118 0001 C CNN
F 3 "" H 5650 5000 118 0001 C CNN
	1    5600 5150
	1    0    0    -1  
$EndComp
$Comp
L power:+3.3V #PWR0120
U 1 1 5C8FF91D
P 5600 4800
F 0 "#PWR0120" H 5600 4650 50  0001 C CNN
F 1 "+3.3V" H 5615 4973 50  0000 C CNN
F 2 "" H 5600 4800 50  0001 C CNN
F 3 "" H 5600 4800 50  0001 C CNN
	1    5600 4800
	1    0    0    -1  
$EndComp
Wire Wire Line
	5600 4800 5600 4900
$Comp
L power:+3.3V #PWR0121
U 1 1 5C903098
P 8200 2200
F 0 "#PWR0121" H 8200 2050 50  0001 C CNN
F 1 "+3.3V" H 8215 2373 50  0000 C CNN
F 2 "" H 8200 2200 50  0001 C CNN
F 3 "" H 8200 2200 50  0001 C CNN
	1    8200 2200
	1    0    0    -1  
$EndComp
$Comp
L power:+3.3V #PWR0122
U 1 1 5C9031CD
P 8200 700
F 0 "#PWR0122" H 8200 550 50  0001 C CNN
F 1 "+3.3V" H 8215 873 50  0000 C CNN
F 2 "" H 8200 700 50  0001 C CNN
F 3 "" H 8200 700 50  0001 C CNN
	1    8200 700 
	1    0    0    -1  
$EndComp
$Comp
L power:+3.3V #PWR0123
U 1 1 5C90331A
P 5500 700
F 0 "#PWR0123" H 5500 550 50  0001 C CNN
F 1 "+3.3V" H 5515 873 50  0000 C CNN
F 2 "" H 5500 700 50  0001 C CNN
F 3 "" H 5500 700 50  0001 C CNN
	1    5500 700 
	1    0    0    -1  
$EndComp
$Comp
L power:+3.3V #PWR0124
U 1 1 5C9034AF
P 2750 700
F 0 "#PWR0124" H 2750 550 50  0001 C CNN
F 1 "+3.3V" H 2765 873 50  0000 C CNN
F 2 "" H 2750 700 50  0001 C CNN
F 3 "" H 2750 700 50  0001 C CNN
	1    2750 700 
	1    0    0    -1  
$EndComp
$Comp
L power:+3.3V #PWR0125
U 1 1 5C9037C4
P 2750 2200
F 0 "#PWR0125" H 2750 2050 50  0001 C CNN
F 1 "+3.3V" H 2765 2373 50  0000 C CNN
F 2 "" H 2750 2200 50  0001 C CNN
F 3 "" H 2750 2200 50  0001 C CNN
	1    2750 2200
	1    0    0    -1  
$EndComp
$Comp
L power:+3.3V #PWR0126
U 1 1 5C9037FF
P 5500 2200
F 0 "#PWR0126" H 5500 2050 50  0001 C CNN
F 1 "+3.3V" H 5515 2373 50  0000 C CNN
F 2 "" H 5500 2200 50  0001 C CNN
F 3 "" H 5500 2200 50  0001 C CNN
	1    5500 2200
	1    0    0    -1  
$EndComp
Text Label 6200 5300 0    50   ~ 0
SDA
Text Label 6200 5200 0    50   ~ 0
SCL
Wire Wire Line
	6200 5200 5950 5200
Wire Wire Line
	5950 5300 6200 5300
$Comp
L power:GND #PWR0127
U 1 1 5C90BAEF
P 5600 5700
F 0 "#PWR0127" H 5600 5450 50  0001 C CNN
F 1 "GND" H 5605 5527 50  0000 C CNN
F 2 "" H 5600 5700 50  0001 C CNN
F 3 "" H 5600 5700 50  0001 C CNN
	1    5600 5700
	1    0    0    -1  
$EndComp
Wire Wire Line
	5600 5600 5600 5700
Wire Wire Line
	10450 900  10450 800 
$Comp
L power:+3.3V #PWR0118
U 1 1 5C8EA8E3
P 10450 900
F 0 "#PWR0118" H 10450 750 50  0001 C CNN
F 1 "+3.3V" H 10465 1073 50  0000 C CNN
F 2 "" H 10450 900 50  0001 C CNN
F 3 "" H 10450 900 50  0001 C CNN
	1    10450 900 
	-1   0    0    1   
$EndComp
$Comp
L power:PWR_FLAG #FLG0102
U 1 1 5C8EA844
P 10450 800
F 0 "#FLG0102" H 10450 875 50  0001 C CNN
F 1 "PWR_FLAG" H 10450 974 50  0000 C CNN
F 2 "" H 10450 800 50  0001 C CNN
F 3 "~" H 10450 800 50  0001 C CNN
	1    10450 800 
	1    0    0    -1  
$EndComp
Text Notes 5150 6150 0    118  ~ 0
OLED display
Text Notes 1450 3850 0    118  ~ 0
Micro-controller
$Comp
L temperature_monitoring-rescue:MicroSD_Breakout-Connector_MicroSD A2
U 1 1 5C91EC8F
P 8000 5250
F 0 "A2" H 7822 5321 50  0000 R CNN
F 1 "MicroSD_Breakout" H 7822 5230 50  0000 R CNN
F 2 "Connector_MicroSD:MicroSD_Breakout" H 8000 5550 118 0001 C CNN
F 3 "" H 8000 5550 118 0001 C CNN
	1    8000 5250
	1    0    0    -1  
$EndComp
$Comp
L power:+3.3V #PWR01
U 1 1 5C91EDBE
P 8000 4800
F 0 "#PWR01" H 8000 4650 50  0001 C CNN
F 1 "+3.3V" H 8015 4973 50  0000 C CNN
F 2 "" H 8000 4800 50  0001 C CNN
F 3 "" H 8000 4800 50  0001 C CNN
	1    8000 4800
	1    0    0    -1  
$EndComp
$Comp
L power:GND #PWR02
U 1 1 5C91EDFB
P 8000 5700
F 0 "#PWR02" H 8000 5450 50  0001 C CNN
F 1 "GND" H 8005 5527 50  0000 C CNN
F 2 "" H 8000 5700 50  0001 C CNN
F 3 "" H 8000 5700 50  0001 C CNN
	1    8000 5700
	1    0    0    -1  
$EndComp
Wire Wire Line
	8000 5600 8000 5700
Wire Wire Line
	8000 4850 8000 4800
Text Label 8550 5050 0    50   ~ 0
CS_SD
Text Label 8550 5150 0    50   ~ 0
MOSI
Text Label 8550 5250 0    50   ~ 0
SPI_SCK
Text Label 8550 5350 0    50   ~ 0
MISO
Wire Wire Line
	8550 5250 8400 5250
Wire Wire Line
	8400 5350 8550 5350
Wire Wire Line
	8550 5150 8400 5150
Wire Wire Line
	8400 5050 8550 5050
Text Notes 7800 6150 0    118  ~ 0
SD card
Text Label 1100 6750 2    50   ~ 0
CS_SD
$Comp
L power:+3.3V #PWR0128
U 1 1 5C95C08E
P 700 6950
F 0 "#PWR0128" H 700 6800 50  0001 C CNN
F 1 "+3.3V" H 715 7123 50  0000 C CNN
F 2 "" H 700 6950 50  0001 C CNN
F 3 "" H 700 6950 50  0001 C CNN
	1    700  6950
	1    0    0    -1  
$EndComp
Wire Wire Line
	1100 6750 1200 6750
Wire Wire Line
	700  6950 1200 6950
NoConn ~ 2950 6750
Wire Wire Line
	1100 6650 1200 6650
NoConn ~ 2950 6650
Wire Wire Line
	1200 6050 1100 6050
NoConn ~ 2950 6550
Wire Wire Line
	1100 5650 1200 5650
Wire Wire Line
	1200 5750 1100 5750
Wire Wire Line
	1100 5850 1200 5850
Wire Wire Line
	1200 5950 1100 5950
NoConn ~ 2950 6450
NoConn ~ 2950 6350
NoConn ~ 2950 6250
NoConn ~ 2950 6150
$EndSCHEMATC
