(module SSD1306_I2C (layer F.Cu) (tedit 5CAEF147)
  (fp_text reference REF** (at -0.5 10.5) (layer F.SilkS)
    (effects (font (size 1 1) (thickness 0.15)))
  )
  (fp_text value SSD1306_I2C (at -0.5 -10) (layer F.Fab)
    (effects (font (size 1 1) (thickness 0.15)))
  )
  (fp_line (start -13.5 -13.5) (end 11.5 -13.5) (layer F.SilkS) (width 0.15))
  (fp_line (start 11.5 -13.5) (end 11.5 13.5) (layer F.SilkS) (width 0.15))
  (fp_line (start 11.5 13.5) (end -13.5 13.5) (layer F.SilkS) (width 0.15))
  (fp_line (start -13.5 -13.5) (end -13.5 13.5) (layer F.SilkS) (width 0.15))
  (fp_circle (center 9.5 -11.5) (end 10.5 -13) (layer F.SilkS) (width 0.15))
  (fp_circle (center -11.5 11.5) (end -10 10.5) (layer F.SilkS) (width 0.15))
  (fp_circle (center -11.5 -11.5) (end -10 -12.5) (layer F.SilkS) (width 0.15))
  (fp_circle (center 9.5 11.5) (end 11 12.5) (layer F.SilkS) (width 0.15))
  (fp_line (start -13 -9) (end 11 -9) (layer F.SilkS) (width 0.15))
  (fp_line (start 11 -9) (end 11 7) (layer F.SilkS) (width 0.15))
  (fp_line (start 11 7) (end -13 7) (layer F.SilkS) (width 0.15))
  (fp_line (start -13 7) (end -13 -9) (layer F.SilkS) (width 0.15))
  (fp_line (start -2.25 -5) (end -2.25 -1) (layer F.SilkS) (width 0.15))
  (fp_line (start 1.25 -5) (end 1.25 -1) (layer F.SilkS) (width 0.15))
  (fp_arc (start -0.5 -1.5) (end -4.499999 -0.000001) (angle -138.8879096) (layer F.SilkS) (width 0.15))
  (pad 1 thru_hole circle (at -4.81 -11.938) (size 1.524 1.524) (drill 0.762) (layers *.Cu *.Mask))
  (pad 2 thru_hole circle (at -2.27 -11.938) (size 1.524 1.524) (drill 0.762) (layers *.Cu *.Mask))
  (pad 3 thru_hole circle (at 0.27 -11.938) (size 1.524 1.524) (drill 0.762) (layers *.Cu *.Mask))
  (pad 4 thru_hole circle (at 2.81 -11.938) (size 1.524 1.524) (drill 0.762) (layers *.Cu *.Mask))
  (model ${KISYS3DMOD}/Connector_PinHeader_2.54mm.3dshapes/PinHeader_1x04_P2.54mm_Vertical.step
    (offset (xyz 2.85 11.9 9.5))
    (scale (xyz 1 1 1))
    (rotate (xyz 180 0 -90))
  )
  (model ${KISYS3DMOD}/Connector_PinSocket_2.54mm.3dshapes/PinSocket_1x04_P2.54mm_Vertical.step
    (offset (xyz -4.8 11.9 0))
    (scale (xyz 1 1 1))
    (rotate (xyz 0 0 -90))
  )
  (model ${KIPRJMOD}/footprints/Display_OLED.pretty/ssd1306_i2c.step
    (offset (xyz -1 0 9.5))
    (scale (xyz 1 1 1))
    (rotate (xyz 0 0 0))
  )
)
